6 Week 5- The R environment | Semester.knit
…
Rstudio also allows us to just look into the data file with View()

6.8 How to access parts of the data:

We can also look at a single column at a time. There are three ways to access this: $, [,#] or [,“a”].

Quick Tip:
Think about “rc cola” or “remote control car” to remember that [5,] means fifth row and [,5] means fifth column!

Each way has it’s own advantages:

msleep[,3]

#> # A tibble: 83 x 1
#>    vore 
#>    <chr>
#>  1 carni
#>  2 omni 
#>  3 herbi
#>  4 omni 
#>  5 herbi
#>  6 herbi
#>  7 carni
#>  8 <NA> 
#>  9 carni
#> 10 herbi
#> # ... with 73 more rows

msleep[, "vore"]

#> # A tibble: 83 x 1
#>    vore 
#>    <chr>
#>  1 carni
#>  2 omni 
#>  3 herbi
#>  4 omni 
#>  5 herbi
#>  6 herbi
#>  7 carni
#>  8 <NA> 
#>  9 carni
#> 10 herbi
#> # ... with 73 more rows
…
msleep[msleep$name == "Mountain beaver",]

#> # A tibble: 1 x 11
#>   name            genus   vore  order conservation sleep_total sleep_rem sleep_cycle awake brainwt bodywt
#>   <chr>           <chr>   <chr> <chr> <chr>              <dbl>     <dbl>       <dbl> <dbl>   <dbl>  <dbl>
#> 1 Mountain beaver Aplodo~ herbi Rode~ nt                  14.4       2.4          NA   9.6      NA   1.35

We can select more than one row or column at a time:

 # see two columns
msleep[,c(1, 6)]

#> # A tibble: 83 x 2
#>    name                       sleep_total
#>    <chr>                            <dbl>
#>  1 Cheetah                           12.1
#>  2 Owl monkey                        17  
#>  3 Mountain beaver                   14.4
#>  4 Greater short-tailed shrew        14.9
#>  5 Cow                                4  
#>  6 Three-toed sloth                  14.4
#>  7 Northern fur seal                  8.7
#>  8 Vesper mouse                       7  
#>  9 Dog                               10.1
#> 10 Roe deer                           3  
#> # ... with 73 more rows
…
